[13, 2]
[2, 3]
[5, 6]
[100, 22]
[40, 43]
[30, 53]
[500, 500]
[450, 500]
[450, 300]
[430, 200]
[500, 52]
[450, 50]
[452, 300]
[432, 20]
[45, 50]
[45, 30]
[43, 20]
[1, 2]
[2, 3]
[5, 6]
[1, 22]
[4, 43]
[3, 53]
[450, 50]
[450, 30]
[430, 20]
[50, 52]
[45, 50]
[452, 300]
[43, 20]
[4, 50]
[45, 3]
[43, 2]